<?xml version="1.0" encoding="UTF-8" standalone="no"?>
<svg width="254px" height="254px" viewBox="0 0 254 254" version="1.1" xmlns="http://www.w3.org/2000/svg" xmlns:xlink="http://www.w3.org/1999/xlink" xmlns:sketch="http://www.bohemiancoding.com/sketch/ns">
    <!-- Generator: Sketch 3.2.2 (9983) - http://www.bohemiancoding.com/sketch -->
    <title>A</title>
    <desc>Created with Sketch.</desc>
    <defs></defs>
    <g id="Welcome" stroke="none" stroke-width="1" fill="none" fill-rule="evenodd" sketch:type="MSPage">
        <g id="-tarif" sketch:type="MSArtboardGroup" transform="translate(-183.000000, -185.000000)">
            <g id="A" sketch:type="MSLayerGroup" transform="translate(185.000000, 187.000000)">
                <circle id="Oval-135" stroke="#FFFFFF" stroke-width="3" sketch:type="MSShapeGroup" cx="125" cy="125" r="125"></circle>
                <g id="Imported-Layers-4" transform="translate(67.000000, 27.000000)" fill="#FFFFFF" sketch:type="MSShapeGroup">
                    <path d="M2.47,115.44375 C1.47625,115.44375 0.67,114.6375 0.67,113.64375 C0.67,112.65 1.47625,111.84375 2.47,111.84375 L114.0625,111.84375 C115.05625,111.84375 115.8625,112.65 115.8625,113.64375 C115.8625,114.6375 115.05625,115.44375 114.0625,115.44375 L2.47,115.44375" id="Fill-1"></path>
                    <path d="M8.11375,39.85875 L108.43,39.85875 L58.27,4.26 L8.11375,39.85875 L8.11375,39.85875 Z M114.07,43.45875 L2.47375,43.45875 L2.47375,43.45125 C1.915,43.4475 1.36,43.18875 1.01125,42.6975 C0.4375,41.89125 0.62875,40.77 1.435,40.19625 L57.205,0.615 L57.22375,0.6 L57.2275,0.59625 C57.835,0.165 58.67125,0.1425 59.30875,0.59625 L114.9925,40.11375 C115.5175,40.42875 115.87,41.0025 115.87,41.65875 C115.87,42.64875 115.06,43.45875 114.07,43.45875 L114.07,43.45875 Z" id="Fill-2"></path>
                    <path d="M57.28375,17.9625 C56.455,17.415 56.23,16.2975 56.7775,15.4725 C57.32125,14.6475 58.43875,14.4225 59.26375,14.96625 L75.46375,25.7625 C76.28875,26.31 76.51375,27.4275 75.97,28.2525 C75.4225,29.0775 74.30875,29.3025 73.48375,28.75875 L57.28375,17.9625" id="Fill-3"></path>
                    <path d="M7.34875,108.26625 C6.355,108.26625 5.54875,107.46 5.54875,106.46625 C5.54875,105.4725 6.355,104.66625 7.34875,104.66625 L109.18375,104.66625 C110.1775,104.66625 110.9875,105.4725 110.9875,106.46625 C110.9875,107.46 110.1775,108.26625 109.18375,108.26625 L7.34875,108.26625" id="Fill-4"></path>
                    <path d="M12.1975,101.07 C11.20375,101.07 10.3975,100.26 10.3975,99.26625 C10.3975,98.27625 11.20375,97.46625 12.1975,97.46625 L104.33875,97.46625 C105.32875,97.46625 106.13875,98.27625 106.13875,99.26625 C106.13875,100.26 105.32875,101.07 104.33875,101.07 L12.1975,101.07" id="Fill-5"></path>
                    <path d="M87.085,48.8625 C87.085,47.86875 87.895,47.0625 88.88875,47.0625 C89.87875,47.0625 90.68875,47.86875 90.68875,48.8625 L90.68875,90.26625 L97.8925,90.26625 L97.8925,48.8625 C97.8925,47.86875 98.7025,47.0625 99.69625,47.0625 C100.68625,47.0625 101.49625,47.86875 101.49625,48.8625 L101.49625,92.07 C101.49625,93.06 100.68625,93.87 99.69625,93.87 L88.88875,93.87 C87.895,93.87 87.085,93.06 87.085,92.07 L87.085,48.8625" id="Fill-6"></path>
                    <path d="M57.26875,14.96625 C58.09375,14.415 59.2075,14.6325 59.75875,15.4575 C60.31,16.27875 60.08875,17.39625 59.2675,17.9475 L43.06375,28.75125 C42.2425,29.3025 41.125,29.08125 40.57375,28.26 C40.0225,27.43875 40.24375,26.32125 41.065,25.77 L57.26875,14.96625" id="Fill-7"></path>
                    <path d="M15.0475,48.8625 C15.0475,47.86875 15.8575,47.0625 16.85125,47.0625 C17.84125,47.0625 18.65125,47.86875 18.65125,48.8625 L18.65125,90.26625 L25.85875,90.26625 L25.85875,48.8625 C25.85875,47.86875 26.665,47.0625 27.65875,47.0625 C28.6525,47.0625 29.45875,47.86875 29.45875,48.8625 L29.45875,92.07 C29.45875,93.06 28.6525,93.87 27.65875,93.87 L16.85125,93.87 C15.8575,93.87 15.0475,93.06 15.0475,92.07 L15.0475,48.8625" id="Fill-8"></path>
                    <path d="M38.4625,48.8625 C38.4625,47.86875 39.26875,47.0625 40.2625,47.0625 C41.25625,47.0625 42.0625,47.86875 42.0625,48.8625 L42.0625,90.26625 L49.27,90.26625 L49.27,48.8625 C49.27,47.86875 50.07625,47.0625 51.07,47.0625 C52.06375,47.0625 52.87,47.86875 52.87,48.8625 L52.87,92.07 C52.87,93.06 52.06375,93.87 51.07,93.87 L40.2625,93.87 C39.26875,93.87 38.4625,93.06 38.4625,92.07 L38.4625,48.8625" id="Fill-9"></path>
                    <path d="M63.67375,48.8625 C63.67375,47.86875 64.48,47.0625 65.47375,47.0625 C66.4675,47.0625 67.27375,47.86875 67.27375,48.8625 L67.27375,90.26625 L74.48125,90.26625 L74.48125,48.8625 C74.48125,47.86875 75.29125,47.0625 76.28125,47.0625 C77.275,47.0625 78.08125,47.86875 78.08125,48.8625 L78.08125,92.07 C78.08125,93.06 77.275,93.87 76.28125,93.87 L65.47375,93.87 C64.48,93.87 63.67375,93.06 63.67375,92.07 L63.67375,48.8625" id="Fill-10"></path>
                </g>
            </g>
        </g>
    </g>
</svg>