<?xml version="1.0" encoding="UTF-8" standalone="no"?>
<svg width="72px" height="43px" viewBox="0 0 72 43" version="1.1" xmlns="http://www.w3.org/2000/svg" xmlns:xlink="http://www.w3.org/1999/xlink" xmlns:sketch="http://www.bohemiancoding.com/sketch/ns">
    <!-- Generator: Sketch 3.3.2 (12043) - http://www.bohemiancoding.com/sketch -->
    <title>Group</title>
    <desc>Created with Sketch.</desc>
    <defs></defs>
    <g id="Welcome" stroke="none" stroke-width="1" fill="none" fill-rule="evenodd" sketch:type="MSPage">
        <g id="1440" sketch:type="MSArtboardGroup" transform="translate(-800.000000, -1884.000000)" fill="#FFFFFF">
            <g id="2" sketch:type="MSLayerGroup" transform="translate(800.000000, 1868.000000)">
                <g id="Group" transform="translate(0.000000, 16.000000)" sketch:type="MSShapeGroup">
                    <path d="M0,41.6666667 L0,14.789 C0,14.1706667 0.501666667,13.6666667 1.12,13.6666667 L57.12,13.6666667 C57.7383333,13.6666667 58.24,14.1706667 58.24,14.789 L58.24,41.6666667 C58.24,42.285 57.7383333,42.7866667 57.12,42.7866667 L1.12,42.7866667 C0.501666667,42.7866667 0,42.285 0,41.6666667 L0,41.6666667 Z M2.24,40.5466667 L56,40.5466667 L56,15.909 L2.24,15.909 L2.24,40.5466667 Z" id="Fill-1771"></path>
                    <path d="M5.789,11.24 C5.17066667,11.24 4.66666667,10.7383333 4.66666667,10.12 C4.66666667,9.504 5.17066667,9 5.789,9 L61.789,9 C62.405,9 62.909,9.504 62.909,10.12 L62.909,37 C62.909,37.616 62.405,38.12 61.789,38.12 C61.1706667,38.12 60.669,37.616 60.669,37 L60.669,11.24 L5.789,11.24" id="Fill-1772"></path>
                    <path d="M10.12,6.57333333 C9.50166667,6.57333333 9,6.06933333 9,5.451 C9,4.835 9.50166667,4.33333333 10.12,4.33333333 L66.12,4.33333333 C66.7383333,4.33333333 67.2423333,4.835 67.2423333,5.451 L67.2423333,32.331 C67.2423333,32.9493333 66.7383333,33.451 66.12,33.451 C65.504,33.451 65,32.9493333 65,32.331 L65,6.57333333 L10.12,6.57333333" id="Fill-1773"></path>
                    <path d="M14.7866667,2.24 C14.1683333,2.24 13.6666667,1.73833333 13.6666667,1.12 C13.6666667,0.501666667 14.1683333,0 14.7866667,0 L70.7866667,0 C71.405,0 71.9066667,0.501666667 71.9066667,1.12 L71.902,1.23433333 L71.8926667,28.0046667 C71.8926667,28.6183333 71.3933333,29.12 70.7773333,29.12 C70.1636667,29.12 69.6643333,28.6183333 69.6643333,28.0046667 L69.6713333,2.24 L14.7866667,2.24" id="Fill-1774"></path>
                    <path d="M10.3576667,32.0533333 C9.43366667,32.0533333 8.589,31.6753333 7.98233333,31.0686667 C7.378,30.4643333 7,29.6196667 7,28.6933333 C7,27.7646667 7.37566667,26.9246667 7.98233333,26.318 C8.589,25.7113333 9.429,25.3333333 10.3576667,25.3333333 C11.284,25.3333333 12.1216667,25.7113333 12.7306667,26.318 L12.7353333,26.3226667 L12.7633333,26.353 L12.775,26.3623333 C13.3583333,26.9666667 13.72,27.7903333 13.72,28.6933333 C13.72,29.6196667 13.342,30.4643333 12.7353333,31.0686667 L12.6466667,31.1503333 C12.0446667,31.708 11.2396667,32.0533333 10.3576667,32.0533333 L10.3576667,32.0533333 Z M9.56666667,29.4843333 C9.76733333,29.685 10.0496667,29.8133333 10.3576667,29.8133333 C10.647,29.8133333 10.913,29.706 11.109,29.531 L11.151,29.4843333 C11.3516667,29.2836667 11.4776667,29.0013333 11.4776667,28.6933333 C11.4776667,28.3853333 11.354,28.103 11.1556667,27.9023333 L11.151,27.8953333 C10.9503333,27.697 10.668,27.5733333 10.3576667,27.5733333 C10.0496667,27.5733333 9.76733333,27.7016667 9.56666667,27.9023333 C9.366,28.103 9.24,28.3853333 9.24,28.6933333 C9.24,29.0013333 9.366,29.2836667 9.56666667,29.4843333 L9.56666667,29.4843333 Z" id="Fill-1775"></path>
                    <path d="M47.6956667,32.0533333 C46.7716667,32.0533333 45.9316667,31.6753333 45.3226667,31.0686667 L45.3203333,31.0663333 L45.318,31.0686667 C44.7113333,30.4643333 44.3333333,29.6196667 44.3333333,28.6933333 C44.3333333,27.7693333 44.7113333,26.9293333 45.318,26.3226667 L45.3226667,26.318 L45.353,26.29 L45.3623333,26.2783333 C45.9666667,25.695 46.7926667,25.3333333 47.6956667,25.3333333 C48.6196667,25.3333333 49.4573333,25.7113333 50.0663333,26.318 L50.071,26.3226667 L50.099,26.3506667 L50.1106667,26.3623333 C50.694,26.9666667 51.0556667,27.788 51.0556667,28.6933333 C51.0556667,29.6196667 50.6776667,30.4643333 50.071,31.0686667 L49.9823333,31.1503333 C49.3803333,31.708 48.5776667,32.0533333 47.6956667,32.0533333 L47.6956667,32.0533333 Z M46.9,29.4866667 C47.1006667,29.6873333 47.383,29.8133333 47.6956667,29.8133333 C47.9826667,29.8133333 48.2486667,29.706 48.447,29.5286667 L48.4866667,29.4843333 C48.6873333,29.2836667 48.8156667,29.0013333 48.8156667,28.6933333 C48.8156667,28.383 48.692,28.103 48.4936667,27.9023333 L48.4866667,27.8953333 C48.286,27.697 48.0036667,27.5733333 47.6956667,27.5733333 C47.383,27.5733333 47.1053333,27.697 46.9023333,27.8953333 L46.8976667,27.9023333 C46.6993333,28.103 46.5756667,28.383 46.5756667,28.6933333 C46.5756667,29.0013333 46.7016667,29.2836667 46.9023333,29.4843333 L46.9,29.4866667 L46.9,29.4866667 Z" id="Fill-1776"></path>
                    <path d="M46.6666667,14.789 C46.6666667,14.1706667 47.1706667,13.6666667 47.789,13.6666667 C48.405,13.6666667 48.909,14.1706667 48.909,14.789 C48.909,16.707 49.686,18.4453333 50.939,19.7006667 C52.1966667,20.9536667 53.9326667,21.7306667 55.8506667,21.7306667 C56.469,21.7306667 56.973,22.2346667 56.973,22.8506667 C56.973,23.469 56.469,23.973 55.8506667,23.973 C53.319,23.973 51.0253333,22.944 49.3616667,21.2826667 L49.357,21.278 C47.698,19.6143333 46.6666667,17.3206667 46.6666667,14.789" id="Fill-1777"></path>
                    <path d="M8.06166667,14.789 C8.06166667,14.1706667 8.56566667,13.6666667 9.184,13.6666667 C9.8,13.6666667 10.304,14.1706667 10.304,14.789 C10.304,17.3183333 9.275,19.612 7.61366667,21.2756667 L7.60666667,21.2803333 C5.943,22.944 3.64933333,23.973 1.12,23.973 C0.501666667,23.973 0,23.469 0,22.8506667 C0,22.2346667 0.501666667,21.7306667 1.12,21.7306667 C3.038,21.7306667 4.77633333,20.9536667 6.02933333,19.703 L6.034,19.696 C7.287,18.4453333 8.06166667,16.707 8.06166667,14.789" id="Fill-1778"></path>
                    <path d="M48.909,41.515 C48.909,42.1333333 48.405,42.635 47.789,42.635 C47.1706667,42.635 46.6666667,42.1333333 46.6666667,41.515 C46.6666667,38.988 47.6956667,36.692 49.3593333,35.0283333 L49.364,35.0213333 C51.0276667,33.36 53.3213333,32.3333333 55.8506667,32.3333333 C56.469,32.3333333 56.973,32.835 56.973,33.451 C56.973,34.0693333 56.469,34.5733333 55.8506667,34.5733333 C53.9326667,34.5733333 52.1966667,35.348 50.9436667,36.601 L50.9366667,36.608 C49.686,37.8586667 48.909,39.597 48.909,41.515" id="Fill-1779"></path>
                    <path d="M10.304,41.515 C10.304,42.1333333 9.8,42.635 9.184,42.635 C8.56566667,42.635 8.06166667,42.1333333 8.06166667,41.515 C8.06166667,39.597 7.287,37.8586667 6.034,36.608 L6.02933333,36.601 C4.77633333,35.348 3.038,34.5733333 1.12,34.5733333 C0.501666667,34.5733333 0,34.0693333 0,33.451 C0,32.835 0.501666667,32.3333333 1.12,32.3333333 C3.64933333,32.3333333 5.943,33.36 7.60666667,35.0213333 L7.61366667,35.0283333 C9.275,36.692 10.304,38.988 10.304,41.515" id="Fill-1780"></path>
                    <path d="M28.6533333,20.5733333 C27.804,20.5733333 27.034,20.9186667 26.4763333,21.474 L26.4226667,21.523 C25.8976667,22.076 25.5733333,22.8273333 25.5733333,23.651 C25.5733333,24.505 25.9186667,25.2773333 26.4716667,25.8303333 L26.474,25.8326667 L26.4763333,25.8303333 C27.034,26.3856667 27.804,26.731 28.6533333,26.731 C29.5073333,26.731 30.2773333,26.388 30.8303333,25.835 L30.835,25.8303333 C31.388,25.2773333 31.7333333,24.505 31.7333333,23.651 C31.7333333,22.8016667 31.388,22.0316667 30.8303333,21.474 L30.7813333,21.4226667 C30.233,20.8976667 29.4816667,20.5733333 28.6533333,20.5733333 L28.6533333,20.5733333 Z M24.892,19.8896667 C25.8556667,18.926 27.1856667,18.3333333 28.6533333,18.3333333 C30.0836667,18.3333333 31.388,18.9003333 32.347,19.8266667 L32.4146667,19.8896667 C33.3783333,20.8533333 33.9733333,22.1833333 33.9733333,23.651 C33.9733333,25.114 33.3783333,26.444 32.4146667,27.4076667 L32.41,27.4123333 C31.4463333,28.376 30.1163333,28.971 28.6533333,28.971 C27.1833333,28.971 25.8556667,28.376 24.892,27.4123333 L24.8943333,27.41 C23.9306667,26.4463333 23.3333333,25.1163333 23.3333333,23.651 C23.3333333,22.2206667 23.9026667,20.921 24.8243333,19.9643333 L24.892,19.8896667 L24.892,19.8896667 Z" id="Fill-1781"></path>
                    <path d="M22.2784101,32.6070121 C22.0614101,32.8520121 21.8607434,33.1156788 21.6764101,33.3910121 L21.6297434,33.4563454 C21.4080767,33.8016788 21.2120767,34.1656788 21.0487434,34.5460121 C21.7977434,35.4536788 22.7310767,36.2050121 23.7834101,36.7463454 C24.9664101,37.3530121 26.3127434,37.6960121 27.7430767,37.6960121 C29.1757434,37.6960121 30.5220767,37.3530121 31.7027434,36.7463454 C32.7574101,36.2073454 33.6884101,35.4536788 34.4374101,34.5483454 C34.2647434,34.1400121 34.0524101,33.7526788 33.8120767,33.3886788 L33.8097434,33.3886788 C33.6254101,33.1156788 33.4247434,32.8520121 33.2100767,32.6070121 C32.5614101,33.0620121 31.8544101,33.4376788 31.1054101,33.7223454 C30.0530767,34.1190121 28.9190767,34.3360121 27.7430767,34.3360121 C26.5647434,34.3360121 25.4307434,34.1190121 24.3807434,33.7223454 C23.6317434,33.4376788 22.9247434,33.0620121 22.2784101,32.6070121 L22.2784101,32.6070121 Z M19.8144101,32.1473454 C20.2624101,31.4753454 20.8060767,30.8546788 21.4197434,30.3063454 C21.8350767,29.9143454 22.4930767,29.8956788 22.9294101,30.2806788 C23.5804101,30.8546788 24.3410767,31.3190121 25.1694101,31.6316788 C25.9604101,31.9303454 26.8307434,32.0960121 27.7430767,32.0960121 C28.6554101,32.0960121 29.5234101,31.9326788 30.3167434,31.6316788 C31.1380767,31.3213454 31.8917434,30.8640121 32.5404101,30.2970121 C32.9534101,29.9096788 33.6044101,29.8980121 34.0384101,30.2806788 C34.6637434,30.8336788 35.2167434,31.4636788 35.6717434,32.1450121 L35.6694101,32.1473454 L35.6717434,32.1520121 C36.1244101,32.8333454 36.4954101,33.5823454 36.7637434,34.3710121 L36.7590767,34.3733454 C36.8710767,34.7046788 36.8267434,35.0803454 36.6097434,35.3836788 C35.6017434,36.7836788 34.2670767,37.9386788 32.7200767,38.7320121 C31.2220767,39.5020121 29.5280767,39.9360121 27.7430767,39.9360121 C25.9580767,39.9360121 24.2664101,39.5020121 22.7684101,38.7320121 C21.2214101,37.9386788 19.8867434,36.7836788 18.8787434,35.3836788 C18.6757434,35.1013454 18.6057434,34.7280121 18.7247434,34.3756788 C18.9837434,33.6080121 19.3384101,32.8823454 19.7700767,32.2220121 L19.8144101,32.1473454 L19.8144101,32.1473454 Z" id="Fill-1782"></path>
                </g>
            </g>
        </g>
    </g>
</svg>