<?xml version="1.0" encoding="UTF-8" standalone="no"?>
<svg width="46px" height="69px" viewBox="0 0 46 69" version="1.1" xmlns="http://www.w3.org/2000/svg" xmlns:xlink="http://www.w3.org/1999/xlink" xmlns:sketch="http://www.bohemiancoding.com/sketch/ns">
    <!-- Generator: Sketch 3.3.2 (12043) - http://www.bohemiancoding.com/sketch -->
    <title>Group</title>
    <desc>Created with Sketch.</desc>
    <defs></defs>
    <g id="Welcome" stroke="none" stroke-width="1" fill="none" fill-rule="evenodd" sketch:type="MSPage">
        <g id="1440" sketch:type="MSArtboardGroup" transform="translate(-242.000000, -1875.000000)" fill="#FFFFFF">
            <g id="1" sketch:type="MSLayerGroup" transform="translate(229.000000, 1868.000000)">
                <g id="Group" transform="translate(13.000000, 7.000000)" sketch:type="MSShapeGroup">
                    <path d="M19.9051459,8.21216338 C19.5721935,7.73966338 19.6860983,7.08560088 20.1592412,6.75310088 C20.632384,6.42060088 21.2895269,6.53435088 21.6224793,7.00685088 L23.2061935,9.25122588 L24.7942888,7.00685088 C25.1272412,6.53435088 25.7821935,6.42060088 26.2553364,6.75310088 C26.7284793,7.08560088 26.842384,7.73966338 26.5094316,8.21216338 L24.0714316,11.6640384 C24.0035269,11.7624759 23.9137173,11.8521634 23.810765,11.9265384 C23.3376221,12.2590384 22.6826697,12.1431009 22.3497173,11.6706009 L19.9051459,8.21216338" id="Fill-1322"></path>
                    <path d="M40.2685714,56.475 C40.2685714,57.0546875 39.7954286,57.525 39.2171429,57.525 C38.6366667,57.525 38.1635238,57.0546875 38.1635238,56.475 L38.1635238,40.2 C38.1635238,35.9934375 36.4571429,32.185 33.7037143,29.4353125 L33.7015238,29.433125 L33.6993333,29.4353125 C30.9415238,26.68125 27.1279048,24.9771875 22.9178095,24.9771875 C18.7099048,24.9771875 14.8984762,26.68125 12.1406667,29.4353125 L12.0880952,29.4834375 C9.36095238,32.22875 7.67428571,36.0175 7.67428571,40.2 L7.67428571,60.8478125 L39.2171429,60.8478125 C39.7954286,60.8478125 40.2685714,61.3203125 40.2685714,61.8978125 C40.2685714,62.4775 39.7954286,62.95 39.2171429,62.95 L6.62285714,62.95 C6.04238095,62.95 5.57142857,62.4775 5.57142857,61.8978125 L5.57142857,40.2 C5.57142857,35.4509375 7.48809524,31.14375 10.5941905,28.0134375 L10.6511429,27.95 C13.7900952,24.8175 18.1272381,22.875 22.9178095,22.875 C27.708381,22.875 32.0477143,24.8175 35.1866667,27.95 L35.1844762,27.9521875 C38.325619,31.0890625 40.2685714,35.4203125 40.2685714,40.2 L40.2685714,56.475" id="Fill-1323"></path>
                    <path d="M16.5238095,47.425 C16.5238095,46.8453125 16.9947619,46.375 17.5752381,46.375 C18.1557143,46.375 18.6266667,46.8453125 18.6266667,47.425 C18.6266667,48.6325 19.1173333,49.72625 19.9102857,50.518125 C20.7010476,51.3078125 21.7984762,51.8 23.0054286,51.8 C24.2145714,51.8 25.312,51.3078125 26.1049524,50.518125 C26.8957143,49.72625 27.386381,48.6325 27.386381,47.425 C27.386381,46.2175 26.8979048,45.1215625 26.1093333,44.331875 L26.1049524,44.3275 C25.312,43.54 24.2145714,43.05 23.0054286,43.05 C21.5969524,43.05 20.3133333,42.476875 19.3845714,41.549375 L19.382381,41.5515625 C18.4558095,40.62625 17.8819048,39.344375 17.8819048,37.93125 C17.8819048,36.518125 18.4558095,35.23625 19.382381,34.3109375 L19.4546667,34.2453125 C20.3768571,33.3571875 21.6298095,32.8125 23.0054286,32.8125 C24.4226667,32.8125 25.7040952,33.385625 26.6306667,34.3109375 C27.5572381,35.23625 28.1333333,36.518125 28.1333333,37.93125 C28.1333333,38.5109375 27.6601905,38.98125 27.0797143,38.98125 C26.5014286,38.98125 26.0282857,38.5109375 26.0282857,37.93125 C26.0282857,37.0978125 25.6887619,36.343125 25.1433333,35.79625 C24.5979048,35.2515625 23.84,34.9125 23.0054286,34.9125 C22.1971429,34.9125 21.4611429,35.2275 20.9244762,35.739375 L20.8697143,35.79625 C20.3242857,36.343125 19.9847619,37.0978125 19.9847619,37.93125 C19.9847619,38.7646875 20.3242857,39.519375 20.8697143,40.06625 L20.8675238,40.0684375 L20.8697143,40.070625 C21.4129524,40.613125 22.1686667,40.95 23.0054286,40.95 C24.7928571,40.95 26.4138095,41.67625 27.5879048,42.8465625 L27.5922857,42.8509375 C28.7641905,44.02125 29.4914286,45.6421875 29.4914286,47.425 C29.4914286,49.2121875 28.7641905,50.833125 27.5922857,52.0034375 C26.420381,53.17375 24.7972381,53.9 23.0054286,53.9 C21.2158095,53.9 19.5948571,53.17375 18.4207619,52.0034375 C17.2510476,50.833125 16.5238095,49.2121875 16.5238095,47.425" id="Fill-1324"></path>
                    <path d="M21.9047619,31.675 C21.9047619,31.0953125 22.3779048,30.625 22.9561905,30.625 C23.5366667,30.625 24.007619,31.0953125 24.007619,31.675 L24.007619,56.0875 C24.007619,56.6671875 23.5366667,57.1375 22.9561905,57.1375 C22.3779048,57.1375 21.9047619,56.6671875 21.9047619,56.0875 L21.9047619,31.675" id="Fill-1325"></path>
                    <path d="M26.7916604,18.06 C26.5025176,18.55875 25.8585176,18.7315625 25.359089,18.440625 C24.8574699,18.151875 24.6866128,17.5109375 24.9757557,17.01 L32.2897557,4.361875 C31.0105176,3.705625 29.6480414,3.180625 28.2286128,2.8 C26.5244223,2.345 24.7238509,2.1021875 22.8663271,2.1021875 C21.0088033,2.1021875 19.2104223,2.345 17.5040414,2.8 C16.0868033,3.180625 14.7265176,3.705625 13.4472795,4.361875 L20.759089,17.01 C21.0482319,17.5109375 20.8773747,18.151875 20.3779461,18.440625 C19.8763271,18.7315625 19.2345176,18.55875 18.9453747,18.06 L11.0925176,4.48 C10.8033747,3.98125 10.9764223,3.338125 11.4758509,3.049375 C13.1800414,2.065 15.0222319,1.290625 16.9629938,0.774375 C18.8511842,0.2690625 20.8335652,0 22.8663271,0 C24.9012795,0 26.8836604,0.2690625 28.7696604,0.774375 C30.7038509,1.2884375 32.5372795,2.0584375 34.237089,3.03625 L34.2589938,3.049375 C34.7606128,3.338125 34.9314699,3.98125 34.6423271,4.48 L26.7916604,18.06" id="Fill-1326"></path>
                    <path d="M25.6504762,19.5858235 C25.0765714,19.5070735 24.6757143,18.9776985 24.7567619,18.4045735 C24.835619,17.8314485 25.3657143,17.431136 25.939619,17.509886 C31.5165714,18.2820735 36.4495238,21.0733235 39.974,25.1201985 L39.978381,25.118011 C43.4568571,29.112386 45.5619048,34.331761 45.5619048,40.0389485 L45.5619048,67.1639485 C45.5619048,67.7414485 45.0909524,68.2139485 44.5104762,68.2139485 L1.05142857,68.2139485 C0.470952381,68.2139485 0,67.7414485 0,67.1639485 L0,40.0389485 C0,35.4670735 1.35590476,31.203636 3.68438095,27.6358235 C6.08952381,23.954261 9.5307619,21.0076985 13.5940952,19.2183235 C14.1241905,18.984261 14.7462857,19.224886 14.9784762,19.754261 C15.2128571,20.283636 14.9719048,20.904886 14.4418095,21.136761 C10.7508571,22.764261 7.62504762,25.437386 5.44333333,28.775511 C3.33171429,32.0108235 2.10285714,35.880511 2.10285714,40.0389485 L2.10285714,66.111761 L43.4590476,66.111761 L43.4590476,40.0389485 C43.4590476,34.856761 41.5489524,30.118636 38.3924762,26.496136 L38.3946667,26.4939485 L38.3924762,26.491761 C35.1965714,22.821136 30.7170476,20.2858235 25.6504762,19.5858235 L25.6504762,19.5858235 Z M19.8566667,19.5901985 C19.2827619,19.6470735 18.768,19.2270735 18.7110476,18.651761 C18.6562857,18.078636 19.0768571,17.562386 19.6507619,17.5076985 L19.6639048,17.505511 C20.2378095,17.4508235 20.7547619,17.8708235 20.8095238,18.4439485 C20.8664762,19.019261 20.4459048,19.5333235 19.8698095,19.5901985 L19.8566667,19.5901985 L19.8566667,19.5901985 Z" id="Fill-1327"></path>
                </g>
            </g>
        </g>
    </g>
</svg>