<?xml version="1.0" encoding="UTF-8" standalone="no"?>
<svg width="58px" height="70px" viewBox="0 0 58 70" version="1.1" xmlns="http://www.w3.org/2000/svg" xmlns:xlink="http://www.w3.org/1999/xlink" xmlns:sketch="http://www.bohemiancoding.com/sketch/ns">
    <!-- Generator: Sketch 3.3.2 (12043) - http://www.bohemiancoding.com/sketch -->
    <title>Group</title>
    <desc>Created with Sketch.</desc>
    <defs></defs>
    <g id="Welcome" stroke="none" stroke-width="1" fill="none" fill-rule="evenodd" sketch:type="MSPage">
        <g id="1440" sketch:type="MSArtboardGroup" transform="translate(-806.000000, -2095.000000)" fill="#FFFFFF">
            <g id="2" sketch:type="MSLayerGroup" transform="translate(800.000000, 1868.000000)">
                <g id="Group" transform="translate(6.000000, 227.000000)" sketch:type="MSShapeGroup">
                    <path d="M12.1368776,65.6729639 C12.3700942,65.0821561 12.9592731,64.8339175 13.446164,65.1169095 C13.9330548,65.4023839 14.1376308,66.1148286 13.9023684,66.7056365 L13.556635,67.5794364 L13.5320859,67.6365312 L13.2109016,68.4482714 L13.2088558,68.4507538 L13.2109016,68.4532362 L12.8631224,69.3270361 C12.6299058,69.9178439 12.0407269,70.1660825 11.553836,69.8830905 C11.0669452,69.5976161 10.8623692,68.8851714 11.0976316,68.2943635 L11.443365,67.4180813 L11.4454108,67.4205636 L11.7686408,66.6063411 L11.7890984,66.5467638 L12.1368776,65.6729639" id="Fill-1218"></path>
                    <path d="M45.0969001,66.7028058 C44.8615061,66.1094528 45.0702903,65.3994154 45.5574536,65.1163935 C46.0446169,64.8333716 46.6300316,65.0841191 46.8633787,65.677472 L47.2093055,66.5488816 L47.5552324,67.4202911 L47.5552324,67.4178085 L47.9032062,68.2941833 C48.1365533,68.8850536 47.9339097,69.5975736 47.4467465,69.8830782 C46.9575363,70.1661001 46.3700747,69.9178353 46.1346807,69.326965 L45.7887538,68.4530728 L45.7908007,68.4505901 L45.7887538,68.4481075 L45.0969001,66.7028058" id="Fill-1219"></path>
                    <path d="M29.0011249,64.8377686 C36.4100237,64.8377686 43.1214554,61.8317946 47.9767252,56.9763364 C52.831995,52.1208783 55.8356026,45.4114361 55.8356026,38 C55.8356026,30.5908139 52.831995,23.8791217 47.9767252,19.0236636 C43.1214554,14.1682054 36.4100237,11.1644813 29.0011249,11.1644813 C21.5899763,11.1644813 14.8785446,14.1682054 10.0232748,19.0236636 C5.16800497,23.8791217 2.16439738,30.5908139 2.16439738,38 C2.16439738,45.4114361 5.16800497,52.1208783 10.0232748,56.9763364 C14.8785446,61.8317946 21.5899763,64.8377686 29.0011249,64.8377686 L29.0011249,64.8377686 Z M49.5066527,58.5063232 C44.2576516,63.753278 37.0084953,67 29.0011249,67 C20.9915047,67 13.7423484,63.753278 8.49559719,58.5063232 C3.24659607,53.2593685 0,46.007681 0,38 C0,29.994569 3.24659607,22.7428815 8.49559719,17.4936768 C13.7423484,12.246722 20.9915047,9 29.0011249,9 C37.0084953,9 44.2576516,12.246722 49.5066527,17.4936768 C54.7534039,22.7428815 58,29.9900691 58,38 C58,46.007681 54.7534039,53.2593685 49.5066527,58.5063232 L49.5066527,58.5063232 Z" id="Fill-1220"></path>
                    <path d="M34.7439224,60.2685083 C34.1803594,60.4099448 33.6035361,60.0696133 33.4598828,59.5038674 C33.3162295,58.9403315 33.6587874,58.361326 34.2245604,58.2198895 C38.7706351,57.0486188 42.7222062,54.3790055 45.5179206,50.7701657 C48.2495436,47.2453039 49.8761411,42.8121547 49.8761411,37.998895 C49.8761411,32.2353591 47.5379072,27.0154696 43.7609301,23.238674 C39.9839531,19.4596685 34.7638128,17.1237569 29,17.1237569 C23.2339771,17.1237569 18.0116268,19.4596685 14.2368598,23.2342541 L14.2346498,23.2364641 L14.2368598,23.238674 C10.4620928,27.0154696 8.12385894,32.2353591 8.12385894,37.998895 C8.12385894,43.7646409 10.4598828,48.9823204 14.2368598,52.761326 C18.0138368,56.5381215 23.2361872,58.8740331 29,58.8740331 C29.5856635,58.8740331 30.0608244,59.3513812 30.0608244,59.9370166 C30.0608244,60.5226519 29.5856635,61 29,61 C22.6461036,61 16.8977611,58.4232044 12.7362352,54.2618785 C8.57470933,50.1005525 6,44.3502762 6,37.998895 C6,31.6475138 8.57470933,25.8972376 12.7362352,21.7359116 L12.7384453,21.7381215 C16.9021812,17.5745856 22.6527337,15 29,15 C35.3516864,15 41.1022389,17.5745856 45.2637648,21.7359116 C49.4252907,25.8972376 52,31.6475138 52,37.998895 C52,43.2939227 50.2054386,48.1756906 47.1931392,52.0651934 C44.1167483,56.0364641 39.760738,58.9779006 34.7439224,60.2685083" id="Fill-1221"></path>
                    <path d="M30.922,43.9149316 C30.922,44.5139798 30.492,45 29.962,45 C29.43,45 29,44.5139798 29,43.9149316 L29,27.0850684 C29,26.4860202 29.43,26 29.962,26 C30.492,26 30.922,26.4860202 30.922,27.0850684 L30.922,43.9149316" id="Fill-1222"></path>
                    <path d="M13.8535032,37 C14.4840764,37 15,37.432 15,37.962 C15,38.492 14.4840764,38.922 13.8535032,38.922 L10.1488854,38.922 C9.51353503,38.922 9,38.492 9,37.962 C9,37.432 9.51353503,37 10.1488854,37 L13.8535032,37" id="Fill-1223"></path>
                    <path d="M49.8511146,36 C50.486465,36 51,36.432 51,36.962 C51,37.492 50.486465,37.922 49.8511146,37.922 L46.1464968,37.922 C45.5159236,37.922 45,37.492 45,36.962 C45,36.432 45.5159236,36 46.1464968,36 L49.8511146,36" id="Fill-1224"></path>
                    <path d="M29,17.1488854 C29,16.5159236 29.43,16 29.962,16 C30.492,16 30.922,16.5159236 30.922,17.1488854 L30.922,20.8535032 C30.922,21.486465 30.492,22 29.962,22 C29.43,22 29,21.486465 29,20.8535032 L29,17.1488854" id="Fill-1226"></path>
                    <path d="M18.0074207,50.3428497 C18.4600839,49.8877522 19.1999204,49.8853185 19.6550171,50.3379824 C20.1125476,50.7906463 20.1149813,51.530484 19.6623182,51.9855816 L16.9925793,54.655325 C16.5399161,55.1128563 15.8000796,55.11529 15.3449829,54.6601924 C14.8874524,54.2099622 14.8850187,53.4676908 15.3376818,53.0125932 L18.0074207,50.3428497" id="Fill-1227"></path>
                    <path d="M43.0141807,22.3381058 C43.4693327,21.8852766 44.2092591,21.8877112 44.6619772,22.3429749 C45.1146952,22.7982387 45.1122613,23.5383466 44.6571092,23.9911758 L41.9870461,26.6618942 C41.5294601,27.1147234 40.7895337,27.1122888 40.3368156,26.6570251 C39.8840976,26.2017613 39.8889655,25.4592188 40.3441175,25.0063896 L43.0141807,22.3381058" id="Fill-1228"></path>
                    <path d="M19.6591738,24.0064406 C20.1136087,24.4633613 20.1136087,25.2046421 19.6591738,25.6591323 C19.2047388,26.1136226 18.4611179,26.1136226 18.0066829,25.6591323 L15.3408262,22.9929518 C14.8863913,22.5384615 14.8863913,21.7971807 15.3408262,21.3426905 C15.7976914,20.8857698 16.5388821,20.8857698 16.9933171,21.3426905 L19.6591738,24.0064406" id="Fill-1229"></path>
                    <path d="M44.6571092,52.0063896 C45.1122613,52.4592188 45.1146952,53.2017613 44.6619772,53.6570251 C44.2092591,54.1122888 43.4693327,54.1147234 43.0141807,53.6618942 L40.3441175,50.9936104 C39.8889655,50.5383466 39.8840976,49.7982387 40.3368156,49.3429749 C40.7895337,48.8877112 41.5294601,48.8852766 41.9870461,49.3381058 L44.6571092,52.0063896" id="Fill-1230"></path>
                    <path d="M25.0871996,38.922 C24.4859624,38.922 24,38.49 24,37.96 C24,37.43 24.4859624,37 25.0871996,37 L41.9128004,37 C42.5117773,37 43,37.43 43,37.96 C43,38.49 42.5117773,38.922 41.9128004,38.922 L25.0871996,38.922" id="Fill-1231"></path>
                    <path d="M11.3650472,3.45975702 L8.00432091,5.49868753 C7.95204779,5.53758969 7.89977467,5.57191512 7.84314545,5.59937546 C7.49247991,5.8373651 7.25071671,6.20579138 7.14617046,6.61311981 C7.04380226,7.02273661 7.07647296,7.47125555 7.27031913,7.86714217 C7.29863374,7.91290941 7.32694835,7.96096501 7.34872882,8.01130898 C7.57742373,8.38202362 7.92591123,8.63374343 8.31578161,8.74358481 C8.72743247,8.86029127 9.18264426,8.81223567 9.57251464,8.57424602 L13.0160067,6.4872599 C13.0595676,6.45293448 13.1096627,6.42318577 13.1575797,6.40030215 C13.5104233,6.1623125 13.7500085,5.79388623 13.8523767,5.3865578 C13.9547449,4.97922937 13.9242522,4.53528714 13.7347622,4.13940052 C13.7042695,4.09592164 13.6781329,4.05015441 13.6563525,4.0020988 C13.4276576,3.62451908 13.074814,3.36593418 12.6849436,3.2560928 C12.2711147,3.1416747 11.8180809,3.18744194 11.4282106,3.42543159 L11.3650472,3.45975702 L11.3650472,3.45975702 Z M6.8739146,3.65655615 L10.2956262,1.58101184 C10.3500774,1.54210969 10.4067066,1.50778426 10.4698699,1.47574719 C11.3410887,0.976884278 12.3277439,0.883061438 13.2250992,1.13478125 C14.1202765,1.38650107 14.9305099,1.99291699 15.448885,2.87851308 C15.4902679,2.94029885 15.5251167,3.00666135 15.5534313,3.07531221 C16.0217113,3.98836863 16.1110113,5.01813152 15.8714261,5.9517832 C15.631841,6.8968767 15.0524805,7.75272407 14.1965081,8.29964259 L14.1289886,8.34312146 L10.6201552,10.4735865 C9.72497792,11.0159282 8.69911786,11.1257696 7.775626,10.8648964 C6.86955851,10.6085998 6.0462568,9.99531881 5.5300597,9.07997402 L5.49956705,9.02963005 C4.98554799,8.08911328 4.88100174,7.01587152 5.12712104,6.04560604 C5.37106228,5.09364746 5.95913493,4.230935 6.82599757,3.68630485 L6.8739146,3.65655615 L6.8739146,3.65655615 Z" id="Fill-1232"></path>
                    <path d="M13.9039372,11.2980015 C14.1374147,11.8915948 13.9305618,12.5994362 13.4431263,12.8850564 C12.9536427,13.1657094 12.3699489,12.9148603 12.1364714,12.3237506 L11.0960628,9.70349562 C10.8625853,9.10990231 11.0694382,8.39957725 11.5568737,8.11644069 C12.0443092,7.83330413 12.6300511,8.08415319 12.8635286,8.67774651 L13.9039372,11.2980015" id="Fill-1233"></path>
                    <path d="M45.6673269,0.557404327 L49.0391041,2.60342664 C49.1066267,2.63546726 49.1719713,2.6720851 49.2307813,2.72014603 C50.0671912,3.26254792 50.6356885,4.11391291 50.8731069,5.04537944 C51.1105253,5.98371182 51.0212211,7.02274328 50.5507406,7.93590089 L45.6673269,0.557404327 L45.6673269,0.557404327 Z M48.0894304,4.5533271 L44.6305273,2.45695524 L44.5738953,2.42491462 C44.1840064,2.18689861 43.7287729,2.14112629 43.3149243,2.25555707 C42.9141446,2.36998785 42.5503934,2.64004449 42.3216876,3.03826359 L42.3086187,3.06572698 C42.0820911,3.47538917 42.0363499,3.95370982 42.1474356,4.38625816 C42.2541649,4.80507481 42.5111867,5.18727361 42.8858286,5.42757824 L42.9163227,5.44588716 L46.3904729,7.55370209 L46.4296797,7.57429963 C46.8195686,7.81231565 47.2726239,7.86037658 47.6842944,7.74365719 C48.0807178,7.63151502 48.4401127,7.36603562 48.6688185,6.97925959 L48.6927781,6.93348728 C48.9193058,6.52382509 48.9628688,6.04550444 48.8539613,5.6129561 C48.7450537,5.19185084 48.4902101,4.80965204 48.1199245,4.57163602 L48.0894304,4.5533271 L48.0894304,4.5533271 Z M50.4505457,8.12127875 C49.9321458,9.00926159 49.1218738,9.6134561 48.2244757,9.86520381 C47.3292558,10.1169515 46.3425536,10.0231183 45.4712934,9.52420009 C45.4190178,9.49902532 45.3689203,9.46927332 45.3231791,9.4372327 L41.9426894,7.38663316 C41.8882356,7.35916977 41.83596,7.32712915 41.7880407,7.2905113 C40.9429183,6.7458208 40.3678865,5.89445581 40.12829,4.9515462 C39.8886934,4.01092521 39.9779976,2.97418236 40.4528344,2.05873613 C40.4811504,1.9946549 40.5116445,1.93515089 40.5508512,1.88022412 C41.069251,0.987664053 41.8817012,0.388046776 42.7769211,0.134010449 C43.7026351,-0.124603109 44.7263659,-0.0170381781 45.6194076,0.527652325 L45.6673269,0.557404327 L50.4505457,8.12127875 L50.4505457,8.12127875 Z M45.3231791,9.4372327 C45.0421977,9.24041176 44.8592331,8.90398527 44.8592331,8.52407509 L45.3231791,9.4372327 L45.3231791,9.4372327 Z" id="Fill-1234"></path>
                    <path d="M43.8638662,11.3237506 C43.630458,11.9148603 43.0448902,12.1657094 42.5575995,11.8850564 C42.0703087,11.5994362 41.8614698,10.8915948 42.0969254,10.2980015 L43.1349775,7.67774651 C43.3683857,7.08415319 43.9539535,6.83330413 44.4432917,7.11644069 C44.9305824,7.39957725 45.1373739,8.10990231 44.9039657,8.70349562 L43.8638662,11.3237506" id="Fill-1235"></path>
                </g>
            </g>
        </g>
    </g>
</svg>