﻿<?xml version="1.0" encoding="utf-8"?>
<!-- Generator: Adobe Illustrator 16.0.3, SVG Export Plug-In . SVG Version: 6.00 Build 0)  -->
<svg version="1.2" baseProfile="tiny" id="Слой_1"
	 xmlns="http://www.w3.org/2000/svg" xmlns:xlink="http://www.w3.org/1999/xlink" x="0px" y="0px" width="209.647px"
	 height="41.472px" viewBox="0 0 239.647 45.472" xml:space="preserve">
<polygon fill="#fff" points="0,0 5.587,0 5.587,36.745 14.719,36.745 14.719,41.472 0,41.472 "/>
<polygon fill="#fff" points="224.794,0 239.647,0 239.647,4.727 230.381,4.727 230.381,17.862 238.6,17.862 238.6,22.589 
	230.381,22.589 230.381,36.745 239.647,36.745 239.647,41.472 224.794,41.472 "/>
<path fill="#fff" d="M31.666,29.063l-1.235-6.608c-0.825-4.494-1.496-9.294-2.015-14.397c-0.251,2.489-0.574,5.009-0.967,7.562
	c-0.394,2.55-0.859,5.26-1.397,8.124l-1.02,5.319H31.666z M26.321,0h4.351l8.891,41.472H34.03l-1.558-8.085h-8.219l-1.585,8.085
	h-5.372L26.321,0z"/>
<path fill="#fff" d="M38.954,0h5.399l2.82,19.259l0.457,2.847c0.215,1.541,0.376,2.946,0.483,4.217l0.296,3.519
	c0.017,0.09,0.035,0.251,0.053,0.483c0.018,0.233,0.046,0.529,0.081,0.886l0.134-1.343c0.215-2.345,0.443-4.502,0.686-6.473
	c0.24-1.969,0.505-3.787,0.792-5.452L53.136,0h4.298l2.793,17.432c0.412,2.579,0.757,4.969,1.034,7.172s0.506,4.307,0.685,6.312
	c0.179-2.112,0.381-4.154,0.604-6.124c0.224-1.969,0.462-3.903,0.712-5.802l0.403-2.766L66.056,0h5.345l-7.333,41.472h-4.351
	l-2.928-17.916c-0.018-0.07-0.062-0.366-0.134-0.886c-0.072-0.519-0.18-1.262-0.323-2.229l-0.564-4.137
	c-0.036-0.322-0.094-0.806-0.174-1.45c-0.081-0.645-0.166-1.459-0.255-2.445l-0.135-1.719c-0.035,0.413-0.072,0.771-0.107,1.075
	c-0.036,0.305-0.063,0.555-0.081,0.752c-0.09,1.182-0.165,2.099-0.227,2.752c-0.064,0.655-0.104,1.053-0.122,1.196l-0.564,3.976
	c-0.126,0.913-0.223,1.629-0.295,2.148c-0.072,0.52-0.126,0.843-0.161,0.967l-3.036,17.916h-4.485L38.954,0z"/>
<path fill="#fff" d="M95.113,17.244c0.769-0.806,1.414-1.517,1.934-2.136c0.518-0.616,0.913-1.158,1.182-1.624
	c0.554-0.931,0.831-1.943,0.831-3.035c0-1.021-0.268-1.831-0.805-2.432c-0.538-0.599-1.244-0.899-2.121-0.899
	c-0.913,0-1.702,0.359-2.364,1.074c-0.645,0.699-0.967,1.531-0.967,2.498C92.803,12.07,93.572,14.254,95.113,17.244 M93.635,24.899
	c-2.077,2.293-3.116,4.442-3.116,6.447c0,1.612,0.458,2.964,1.371,4.056c0.913,1.111,2.013,1.665,3.303,1.665
	c1.433,0,2.838-0.877,4.218-2.632L93.635,24.899z M106.259,25.544l3.546,2.82l-4.431,6.178l4.431,6.93h-6.125l-1.959-3.223
	c-2.042,2.31-4.415,3.465-7.119,3.465c-2.525,0-4.719-0.984-6.58-2.955c-1.826-1.987-2.74-4.36-2.74-7.118
	c0-1.862,0.43-3.616,1.29-5.264c0.859-1.666,2.354-3.59,4.484-5.775c-2.22-3.509-3.331-6.796-3.331-9.858
	c0-2.273,0.753-4.154,2.257-5.641c1.522-1.467,3.456-2.202,5.802-2.202c2.363,0,4.252,0.681,5.668,2.041
	c1.431,1.38,2.149,3.17,2.149,5.372c0,1.881-0.44,3.582-1.317,5.104c-0.412,0.752-1.021,1.624-1.827,2.619
	c-0.806,0.993-1.826,2.108-3.062,3.344l5.48,8.971L106.259,25.544z"/>
<path fill="#fff" d="M135.536,19.662h10.153v1.612c0,8.076-0.707,13.529-2.121,16.357c-1.396,2.901-4.012,4.352-7.843,4.352
	c-3.958,0-6.778-1.612-8.462-4.835c-1.665-3.223-2.497-8.639-2.497-16.25c0-8.703,0.913-14.495,2.74-17.379
	c1.719-2.703,4.359-4.056,7.923-4.056c2.722,0,4.843,0.654,6.367,1.961c1.538,1.326,2.738,3.501,3.599,6.527l-5.211,2.176
	c-0.234-1.092-0.493-2.011-0.78-2.754c-0.286-0.742-0.6-1.32-0.938-1.732c-0.682-0.841-1.702-1.262-3.062-1.262
	c-1.862,0-3.135,1.146-3.813,3.438c-0.683,2.4-1.021,6.706-1.021,12.919c0,6.286,0.349,10.539,1.046,12.759
	c0.699,2.221,2.017,3.331,3.95,3.331c1.773,0,3.018-0.788,3.732-2.364c0.734-1.683,1.103-4.387,1.103-8.112v-1.128v-0.833h-4.863
	V19.662z"/>
<path fill="#fff" d="M162.504,29.063l-1.236-6.608c-0.822-4.494-1.494-9.294-2.013-14.397c-0.251,2.489-0.574,5.009-0.967,7.562
	c-0.396,2.55-0.859,5.26-1.397,8.124l-1.02,5.319H162.504z M157.16,0h4.351l8.891,41.472h-5.533l-1.558-8.085h-8.22l-1.584,8.085
	h-5.372L157.16,0z"/>
<path fill="#fff" d="M173.678,0h5.479v29.305c0,2.991,0.269,4.978,0.806,5.962c0.556,0.986,1.648,1.478,3.277,1.478
	c1.63,0,2.705-0.43,3.223-1.289c0.538-0.877,0.806-2.66,0.806-5.346V0h5.48v30.11c0,4.513-0.69,7.566-2.067,9.16
	c-1.648,1.809-4.165,2.712-7.549,2.712c-3.724,0-6.348-1.163-7.869-3.491c-1.057-1.594-1.586-4.656-1.586-9.186V0z"/>
<path fill="#fff" d="M209.08,19.662h10.152v1.612c0,8.076-0.707,13.529-2.121,16.357c-1.396,2.901-4.012,4.352-7.843,4.352
	c-3.958,0-6.777-1.612-8.462-4.835c-1.665-3.223-2.497-8.639-2.497-16.25c0-8.703,0.913-14.495,2.74-17.379
	c1.719-2.703,4.36-4.056,7.922-4.056c2.723,0,4.844,0.654,6.367,1.961c1.539,1.326,2.74,3.501,3.6,6.527l-5.211,2.176
	c-0.233-1.092-0.493-2.011-0.779-2.754c-0.286-0.742-0.601-1.32-0.939-1.732c-0.681-0.841-1.702-1.262-3.062-1.262
	c-1.863,0-3.136,1.146-3.814,3.438c-0.682,2.4-1.021,6.706-1.021,12.919c0,6.286,0.349,10.539,1.047,12.759
	c0.698,2.221,2.016,3.331,3.949,3.331c1.773,0,3.018-0.788,3.732-2.364c0.735-1.683,1.103-4.387,1.103-8.112v-1.128v-0.833h-4.862
	V19.662z"/>
</svg>
