<?xml version="1.0" encoding="iso-8859-1"?>
<!-- Generator: Adobe Illustrator 16.0.0, SVG Export Plug-In . SVG Version: 6.00 Build 0)  -->
<!DOCTYPE svg PUBLIC "-//W3C//DTD SVG 1.1//EN" "http://www.w3.org/Graphics/SVG/1.1/DTD/svg11.dtd">
<svg version="1.1" id="&#x421;&#x43B;&#x43E;&#x439;_1"
	 xmlns="http://www.w3.org/2000/svg" xmlns:xlink="http://www.w3.org/1999/xlink" x="0px" y="0px" width="209.517px" height="79px"
	 viewBox="0 0 209.517 79" style="enable-background:new 0 0 209.517 79;" xml:space="preserve">
<path style="fill:#0D0F0F;" d="M150.861,25.337v-2.546h7.831v1.454c0,4.631-2.449,7.734-7.226,7.734s-8.025-3.006-8.025-8.122
	c0-5.117,3.249-8.366,8.025-8.366c2.861,0,4.995,0.85,6.474,2.91l-2.424,2.037c-0.994-1.479-2.207-2.109-4.05-2.109
	c-2.425,0-4.68,1.575-4.68,5.406c0,4.05,2.255,5.408,4.68,5.408c2.619,0,3.952-1.407,3.952-3.807H150.861z"/>
<path style="fill:#0D0F0F;" d="M181.412,28.876h-6.498l-1.26,2.74h-3.322l7.783-16.245h0.146l7.759,16.245h-3.321L181.412,28.876z
	 M175.934,26.452h4.461l-2.23-4.922L175.934,26.452z"/>
<polygon style="fill:#0D0F0F;" points="198.63,31.616 198.63,15.856 201.927,15.856 201.927,28.634 209.517,28.634 209.517,31.616 
	"/>
<path style="fill:#0D0F0F;" d="M100.4,64.311c-1.916,0-4.582-0.581-5.867-2.813l0.945-0.848c1.431,2.086,3.37,2.399,4.922,2.399
	c2.521,0,4.583-0.896,4.583-3.249c0-2.108-1.479-2.787-4.269-3.441c-3.055-0.729-5.697-1.285-5.697-4.534
	c0-2.304,1.988-4.001,5.504-4.001c1.818,0,3.613,0.266,5.286,1.818l-0.946,1.043c-1.552-1.357-2.788-1.602-4.34-1.602
	c-2.764,0-4.146,1.359-4.146,2.741c0,2.109,1.625,2.57,4.316,3.224c3.007,0.729,5.648,1.48,5.648,4.752
	C106.34,62.831,103.674,64.311,100.4,64.311"/>
<path style="fill:#0D0F0F;" d="M122.248,63.946h-1.358v-15.76h4.874c3.516,0,5.94,1.358,5.94,4.995s-2.425,5.165-5.94,5.165h-3.516
	V63.946z M125.521,57.207c2.789,0,4.825-0.873,4.825-4.025s-2.036-3.831-4.825-3.831h-3.272v7.856H125.521z"/>
<path style="fill:#0D0F0F;" d="M154.206,59.995h-8.001l-1.673,3.952h-1.431l7.007-16.245h0.146l7.08,16.245h-1.431L154.206,59.995z
	 M146.666,58.904h7.079l-3.563-8.341L146.666,58.904z"/>
<path style="fill:#0D0F0F;" d="M177.121,63.05c2.085,0,3.758-0.994,4.752-2.739l1.188,0.751c-1.236,2.086-3.321,3.249-5.939,3.249
	c-4.292,0-7.178-3.055-7.178-8.171c0-5.115,2.886-8.317,7.178-8.317c2.618,0,4.703,1.164,5.939,3.226l-1.188,0.752
	c-0.994-1.723-2.667-2.716-4.752-2.716c-3.395,0-5.771,2.667-5.771,6.983C171.35,60.358,173.727,63.05,177.121,63.05"/>
<polygon style="fill:#0D0F0F;" points="197.61,48.188 207.164,48.188 207.164,49.399 198.969,49.399 198.969,55.219 205.83,55.219 
	205.83,56.431 198.969,56.431 198.969,62.735 207.406,62.735 207.406,63.947 197.61,63.947 "/>
<path style="fill:#1D1D21;" d="M44.074,18.861c0.028,1.742-1.36,3.18-3.104,3.21c-1.743,0.028-3.18-1.36-3.21-3.104
	c-0.029-1.743,1.36-3.18,3.103-3.21C42.606,15.729,44.045,17.118,44.074,18.861"/>
<path style="fill:#1D1D21;" d="M38.694,75.111c-19.192,0-34.807-15.612-34.807-34.805S19.502,5.5,38.694,5.5
	S73.5,21.114,73.5,40.307S57.887,75.111,38.694,75.111 M38.694,6.5C20.053,6.5,4.888,21.666,4.888,40.307
	c0,18.64,15.165,33.805,33.807,33.805c18.641,0,33.806-15.165,33.806-33.805C72.5,21.666,57.335,6.5,38.694,6.5"/>
<path style="fill:#1D1D21;" d="M31.61,71.784c-6.911,0-13.04-2.379-17.527-6.866C3.268,54.103,5.51,34.263,19.08,20.692
	C32.652,7.118,52.492,4.881,63.305,15.694c5.256,5.254,7.62,12.76,6.658,21.135c-0.956,8.331-5.096,16.532-11.654,23.092
	c-6.56,6.559-14.76,10.697-23.091,11.653C33.995,71.716,32.791,71.784,31.61,71.784 M45.741,9.841
	c-8.764,0-18.358,3.963-25.954,11.559C6.606,34.579,4.364,53.784,14.79,64.211c5.034,5.033,12.245,7.299,20.313,6.371
	c8.107-0.931,16.098-4.97,22.498-11.368c6.399-6.4,10.438-14.392,11.368-22.498c0.926-8.065-1.337-15.279-6.371-20.313
	C58.182,11.985,52.186,9.841,45.741,9.841"/>
<path style="fill:#1D1D21;" d="M38.694,75.111c-10.668,0-19.348-15.612-19.348-34.805c0-19.191,8.68-34.806,19.348-34.807
	c10.668,0,19.347,15.614,19.347,34.807S49.362,75.111,38.694,75.111 M38.694,6.5C28.577,6.501,20.347,21.667,20.347,40.307
	s8.23,33.805,18.348,33.805c10.116,0,18.347-15.165,18.347-33.805C57.041,21.666,48.811,6.5,38.694,6.5"/>
<path style="fill:#1D1D21;" d="M53.598,68.46c-8.409,0-19.333-5.223-28.584-14.473c-13.57-13.57-18.475-30.748-10.931-38.292
	c7.544-7.548,24.723-2.641,38.292,10.931c13.57,13.571,18.474,30.749,10.931,38.292C60.904,67.319,57.525,68.46,53.598,68.46
	 M23.837,13.113c-3.672,0-6.815,1.058-9.047,3.289c-7.153,7.152-2.25,23.696,10.931,36.878
	c13.182,13.18,29.725,18.085,36.878,10.931s2.25-23.697-10.931-36.878C42.599,18.263,31.937,13.113,23.837,13.113"/>
<path style="fill:#242122;" d="M64.248,54.731c0.02,1.172-0.914,2.138-2.087,2.157c-1.172,0.021-2.139-0.914-2.158-2.086
	s0.915-2.139,2.087-2.157C63.262,52.625,64.228,53.559,64.248,54.731"/>
<polygon style="fill:#0D0F0F;" points="94.872,31.616 94.872,15.856 98.17,15.856 98.17,28.634 105.759,28.634 105.759,31.616 "/>
<polygon style="fill:#0D0F0F;" points="119.339,15.856 130.347,15.856 130.347,18.645 122.636,18.645 122.636,22.281 
	129.013,22.281 129.013,24.948 122.636,24.948 122.636,28.828 130.589,28.828 130.589,31.616 119.339,31.616 "/>
</svg>
