<?xml version="1.0" encoding="utf-8"?>
<!-- Generator: Adobe Illustrator 16.0.3, SVG Export Plug-In . SVG Version: 6.00 Build 0)  -->
<svg version="1.2" baseProfile="tiny" id="Слой_1"
	 xmlns="http://www.w3.org/2000/svg" xmlns:xlink="http://www.w3.org/1999/xlink" x="0px" y="0px" width="49.134px"
	 height="44.137px" viewBox="0 0 49.134 44.137" xml:space="preserve">
<path fill="#fff" d="M36.665,18.639c1.781-4.748,4.008-8.838,6.68-12.275c1.088-1.412,1.633-2.523,1.633-3.333
	c0-2.02-0.942-3.032-2.821-3.032c-1.684,0-3.662,1.558-5.938,4.67c-6.234,8.436-9.352,16.671-9.352,24.705
	c0,4.319,1.113,7.859,3.34,10.62c2.227,2.764,5.07,4.143,8.535,4.143c2.969,0,5.441-0.954,7.422-2.862
	c1.978-1.907,2.969-4.267,2.969-7.08c0-2.309-0.768-4.369-2.301-6.176c-1.535-1.808-3.291-2.761-5.269-2.862h-2.969
	c-1.881-0.099-2.82-0.958-2.82-2.577C35.774,21.572,36.071,20.258,36.665,18.639L36.665,18.639z M11.133,15.156
	c1.582-3.333,3.363-6.264,5.344-8.792c1.088-1.412,1.633-2.523,1.633-3.333C18.11,1.012,17.168,0,15.289,0
	c-1.684,0-3.662,1.558-5.938,4.67C3.117,13.105,0,21.341,0,29.375c0,4.319,1.113,7.859,3.34,10.62
	c2.227,2.764,5.07,4.143,8.535,4.143c2.969,0,5.441-0.954,7.422-2.862c1.979-1.907,2.969-4.267,2.969-7.08
	c0-2.309-0.768-4.369-2.301-6.176c-1.536-1.808-3.34-2.761-5.418-2.862h-2.969c-1.881-0.099-2.82-0.958-2.82-2.577
	C8.758,20.964,9.549,18.488,11.133,15.156z"/>
</svg>
